edge.vcd
$date
  Sat Feb 11 00:25:10 2023
$end
$version
  PyMTL 3 (Mamba)
$end
$timescale
 10ps
$end

$scope module top $end
  $var reg 1 ! clk $end
  $var reg 1 ' reset $end
  $scope module src $end
    $var reg 12 ( send.msg $end
    $var reg 1 ! clk $end
    $var reg 1 % send.val $end
    $var reg 1 ' reset $end
    $var reg 1 & send.rdy $end
  $upscope $end
  $scope module sink $end
    $var reg 1 ! clk $end
    $var reg 1 " recv.rdy $end
    $var reg 6 # recv.msg $end
    $var reg 1 ' reset $end
    $var reg 1 $ recv.val $end
  $upscope $end
  $scope module mult $end
    $var reg 1 ) s_DOT_send_DOT_rdy $end
    $var reg 1 ! clk $end
    $var reg 12 ( recv.msg $end
    $var reg 6 * s_DOT_send_DOT_msg $end
    $var reg 1 & recv.rdy $end
    $var reg 1 " send.rdy $end
    $var reg 1 + s_DOT_recv_DOT_val $end
    $var reg 1 $ send.val $end
    $var reg 1 ' reset $end
    $var reg 12 , s_DOT_recv_DOT_msg $end
    $var reg 6 # send.msg $end
    $var reg 1 - s_DOT_recv_DOT_rdy $end
    $var reg 1 . s_DOT_send_DOT_val $end
    $var reg 1 % recv.val $end
    $var reg 1 / s_DOT_reset $end
  $upscope $end
$upscope $end
$enddefinitions $end

b0b0 !
b0b0 "
b0b000000 #
b0b0 $
b0b0 %
b0b0 &
b0b0 '
b0b000000000000 (
b0b0 )
b0b000000 *
b0b0 +
b0b000000000000 ,
b0b0 -
b0b0 .
b0b0 /

#0
b0b1 !

b0b000000 #
b0b0 $
b0b1 &
b0b1 '
b0b000000000000 (
b0b0 )
b0b000000 *
b0b0 +
b0b000000000000 ,
b0b1 -
b0b1 /

#50
b0b0 !
#100
b0b1 !

b0b1 "
b0b1 )

#150
b0b0 !
#200
b0b1 !


#250
b0b0 !
#300
b0b1 !

b0b0 '
b0b0 /

#350
b0b0 !
#400
b0b1 !

b0b1 %
b0b011111111111 (
b0b1 +
b0b011111111111 ,

#450
b0b0 !
#500
b0b1 !

b0b0 %
b0b0 &
b0b0 +
b0b0 -

#550
b0b0 !
#600
b0b1 !

b0b000011 #
b0b000011 *

#650
b0b0 !
#700
b0b1 !

b0b001011 #
b0b001011 *

#750
b0b0 !
#800
b0b1 !

b0b011011 #
b0b011011 *

#850
b0b0 !
#900
b0b1 !

b0b111010 #
b0b111010 *

#950
b0b0 !
#1000
b0b1 !

b0b111000 #
b0b111000 *

#1050
b0b0 !
#1100
b0b1 !

b0b111100 #
b0b1 $
b0b111100 *
b0b1 .

#1150
b0b0 !
#1200
b0b1 !

b0b0 "
b0b0 $
b0b1 &
b0b0 )
b0b1 -
b0b0 .

#1250
b0b0 !
#1300
b0b1 !

b0b000000 #
b0b000000 *

#1350
b0b0 !
#1400
b0b1 !


#1450
b0b0 !
#1500
b0b1 !


#1550
b0b0 !
#1600
b0b1 !


#1650
b0b0 !
#1700
b0b1 !

