rand_0_1_20_13.vcd
$date
  Sat Feb 11 00:25:11 2023
$end
$version
  PyMTL 3 (Mamba)
$end
$timescale
 10ps
$end

$scope module top $end
  $var reg 1 % reset $end
  $var reg 1 & clk $end
  $scope module mult $end
    $var reg 1 ) s_DOT_send_DOT_val $end
    $var reg 1 # recv.val $end
    $var reg 40 * s_DOT_recv_DOT_msg $end
    $var reg 1 + s_DOT_reset $end
    $var reg 20 , s_DOT_send_DOT_msg $end
    $var reg 20 ' send.msg $end
    $var reg 1 " send.val $end
    $var reg 1 - s_DOT_send_DOT_rdy $end
    $var reg 1 ( send.rdy $end
    $var reg 1 . s_DOT_recv_DOT_rdy $end
    $var reg 1 & clk $end
    $var reg 1 / s_DOT_recv_DOT_val $end
    $var reg 40 ! recv.msg $end
    $var reg 1 $ recv.rdy $end
    $var reg 1 % reset $end
  $upscope $end
  $scope module src $end
    $var reg 1 & clk $end
    $var reg 40 ! send.msg $end
    $var reg 1 % reset $end
    $var reg 1 # send.val $end
    $var reg 1 $ send.rdy $end
  $upscope $end
  $scope module sink $end
    $var reg 1 " recv.val $end
    $var reg 1 ( recv.rdy $end
    $var reg 1 & clk $end
    $var reg 1 % reset $end
    $var reg 20 ' recv.msg $end
  $upscope $end
$upscope $end
$enddefinitions $end

b0b0000000000000000000000000000000000000000 !
b0b0 "
b0b0 #
b0b0 $
b0b0 %
b0b0 &
b0b00000000000000000000 '
b0b0 (
b0b0 )
b0b0000000000000000000000000000000000000000 *
b0b0 +
b0b00000000000000000000 ,
b0b0 -
b0b0 .
b0b0 /

#0
b0b1 &

b0b1 $
b0b1 %
b0b00000000000000000000 '
b0b0 (
b0b0000000000000000000000000000000000000000 *
b0b1 +
b0b00000000000000000000 ,
b0b0 -
b0b1 .

#50
b0b0 &
#100
b0b1 &


#150
b0b0 &
#200
b0b1 &


#250
b0b0 &
#300
b0b1 &

b0b0 %
b0b0 +

#350
b0b0 &
#400
b0b1 &


#450
b0b0 &
#500
b0b1 &


#550
b0b0 &
#600
b0b1 &


#650
b0b0 &
#700
b0b1 &


#750
b0b0 &
#800
b0b1 &


#850
b0b0 &
#900
b0b1 &

b0b0101101110011100110011100011101000111110 !
b0b1 #
b0b1 (
b0b0101101110011100110011100011101000111110 *
b0b1 -
b0b1 /

#950
b0b0 &
#1000
b0b1 &

b0b0 #
b0b0 $
b0b0 .
b0b0 /

#1050
b0b0 &
#1100
b0b1 &


#1150
b0b0 &
#1200
b0b1 &

b0b00000000000001011011 '
b0b00000000000001011011 ,

#1250
b0b0 &
#1300
b0b1 &

b0b00000000000100010010 '
b0b00000000000100010010 ,

#1350
b0b0 &
#1400
b0b1 &

b0b00000000001010000001 '
b0b00000000001010000001 ,

#1450
b0b0 &
#1500
b0b1 &

b0b00000000010101011110 '
b0b00000000010101011110 ,

#1550
b0b0 &
#1600
b0b1 &

b0b00000000101100010111 '
b0b00000000101100010111 ,

#1650
b0b0 &
#1700
b0b1 &


#1750
b0b0 &
#1800
b0b1 &


#1850
b0b0 &
#1900
b0b1 &


#1950
b0b0 &
#2000
b0b1 &

b0b00000110011010110100 '
b0b00000110011010110100 ,

#2050
b0b0 &
#2100
b0b1 &


#2150
b0b0 &
#2200
b0b1 &

b0b00011101010100100111 '
b0b00011101010100100111 ,

#2250
b0b0 &
#2300
b0b1 &

b0b01001011001000001101 '
b0b01001011001000001101 ,

#2350
b0b0 &
#2400
b0b1 &

b0b10100110101111011001 '
b0b10100110101111011001 ,

#2450
b0b0 &
#2500
b0b1 &


#2550
b0b0 &
#2600
b0b1 &


#2650
b0b0 &
#2700
b0b1 &


#2750
b0b0 &
#2800
b0b1 &

b0b01100000100010011001 '
b0b01100000100010011001 ,

#2850
b0b0 &
#2900
b0b1 &

b0b11010100001000011001 '
b0b11010100001000011001 ,

#2950
b0b0 &
#3000
b0b1 &

b0b1 "
b0b11101100111100011001 '
b0b1 )
b0b11101100111100011001 ,

#3050
b0b0 &
#3100
b0b1 &

b0b0 "
b0b1 $
b0b0 (
b0b0 )
b0b0 -
b0b1 .

#3150
b0b0 &
#3200
b0b1 &

b0b00000000000000000000 '
b0b00000000000000000000 ,

#3250
b0b0 &
#3300
b0b1 &


#3350
b0b0 &
#3400
b0b1 &


#3450
b0b0 &
#3500
b0b1 &


#3550
b0b0 &
#3600
b0b1 &

