rand_0_1_20_13_top_mult.verilator1.vcd
$version Generated by VerilatedVcd $end
$date Sat Feb 11 00:25:11 2023
 $end
$timescale  10ps $end

 $scope module TOP $end
  $var wire  1 !# clk [0:0] $end
  $var wire 40 1# recv_msg [39:0] $end
  $var wire  1 A# recv_rdy [0:0] $end
  $var wire  1 I# recv_val [0:0] $end
  $var wire  1 )# reset [0:0] $end
  $var wire 20 Q# send_msg [19:0] $end
  $var wire  1 Y# send_rdy [0:0] $end
  $var wire  1 a# send_val [0:0] $end
  $scope module HarnessVRTL__n_20__d_13 $end
   $var wire  1 !# clk [0:0] $end
   $var wire 40 1# recv_msg [39:0] $end
   $var wire  1 A# recv_rdy [0:0] $end
   $var wire  1 I# recv_val [0:0] $end
   $var wire  1 )# reset [0:0] $end
   $var wire 20 Q# send_msg [19:0] $end
   $var wire  1 Y# send_rdy [0:0] $end
   $var wire  1 a# send_val [0:0] $end
   $scope module v $end
    $var wire  1 !# clk $end
    $var wire 32 K$ d [31:0] $end
    $var wire 32 C$ n [31:0] $end
    $var wire 40 1# recv_msg [39:0] $end
    $var wire  1 A# recv_rdy $end
    $var wire  1 I# recv_val $end
    $var wire  1 )# reset $end
    $var wire 20 Q# send_msg [19:0] $end
    $var wire  1 Y# send_rdy $end
    $var wire  1 a# send_val $end
    $scope module mult $end
     $var wire 20 i# a [19:0] $end
     $var wire 20 q# b [19:0] $end
     $var wire 20 Q# c [19:0] $end
     $var wire  1 !# clk $end
     $var wire 32 K$ d [31:0] $end
     $var wire  1 + do_add $end
     $var wire  1 # do_carry $end
     $var wire  1 3 in_wait $end
     $var wire 32 C$ n [31:0] $end
     $var wire  1 A# recv_rdy $end
     $var wire  1 I# recv_val $end
     $var wire  1 )# reset $end
     $var wire  1 Y# send_rdy $end
     $var wire  1 a# send_val $end
     $var wire 32 S$ sign [31:0] $end
     $scope module control $end
      $var wire  2 c$ CALC [1:0] $end
      $var wire  2 k$ DONE [1:0] $end
      $var wire  2 [$ IDLE [1:0] $end
      $var wire  1 !# clk $end
      $var wire  5 u! counter [4:0] $end
      $var wire  1 ; counter_reset $end
      $var wire 32 K$ d [31:0] $end
      $var wire  1 + do_add $end
      $var wire  1 # do_carry $end
      $var wire  1 3 in_wait $end
      $var wire 32 C$ n [31:0] $end
      $var wire  2 y# next_state [1:0] $end
      $var wire  1 A# recv_rdy $end
      $var wire  1 I# recv_val $end
      $var wire  1 )# reset $end
      $var wire  1 Y# send_rdy $end
      $var wire  1 a# send_val $end
      $var wire  2 m! state [1:0] $end
     $upscope $end
     $scope module datapath $end
      $var wire 33 ]! a [32:0] $end
      $var wire 33 /" a_const_out [32:0] $end
      $var wire 33 M! a_in [32:0] $end
      $var wire 33 ?" a_out [32:0] $end
      $var wire 33 C acc_in [32:0] $end
      $var wire 33 }! acc_out [32:0] $end
      $var wire 33 S add_tmp [32:0] $end
      $var wire 20 q# b [19:0] $end
      $var wire 33 #$ b_in [32:0] $end
      $var wire 33 O" b_out [32:0] $end
      $var wire 20 Q# c [19:0] $end
      $var wire 33 s$ carry [32:0] $end
      $var wire 40 c carry_tmp [39:0] $end
      $var wire 40 s carry_tmp2 [39:0] $end
      $var wire  1 !# clk $end
      $var wire 32 K$ d [31:0] $end
      $var wire  1 + do_add $end
      $var wire  1 # do_carry $end
      $var wire  1 3 in_wait $end
      $var wire 32 C$ n [31:0] $end
      $var wire  1 )# reset $end
      $scope module a_const_reg $end
       $var wire 32 %% N [31:0] $end
       $var wire  1 !# clk $end
       $var wire 33 ]! d [32:0] $end
       $var wire 33 /" q [32:0] $end
       $var wire 33 /" regout [32:0] $end
       $var wire  1 )# reset $end
       $var wire  1 3 w $end
      $upscope $end
      $scope module a_reg $end
       $var wire 32 %% N [31:0] $end
       $var wire  1 !# clk $end
       $var wire 33 M! d [32:0] $end
       $var wire 33 ?" q [32:0] $end
       $var wire 33 ?" regout [32:0] $end
       $var wire  1 )# reset $end
       $var wire  1 -% w $end
      $upscope $end
      $scope module a_sel $end
       $var wire 33 g" in0 [32:0] $end
       $var wire 33 ]! in1 [32:0] $end
       $var wire 33 M! out [32:0] $end
       $var wire 32 %% p_nbits [31:0] $end
       $var wire  1 3 sel $end
      $upscope $end
      $scope module acc_reg $end
       $var wire 32 %% N [31:0] $end
       $var wire  1 !# clk $end
       $var wire 33 C d [32:0] $end
       $var wire 33 }! q [32:0] $end
       $var wire 33 }! regout [32:0] $end
       $var wire  1 3$ reset $end
       $var wire  1 -% w $end
      $upscope $end
      $scope module add_sel $end
       $var wire 33 }! in0 [32:0] $end
       $var wire 33 5! in1 [32:0] $end
       $var wire 33 C out [32:0] $end
       $var wire 32 %% p_nbits [31:0] $end
       $var wire  1 E! sel $end
      $upscope $end
      $scope module b_reg $end
       $var wire 32 C$ N [31:0] $end
       $var wire  1 !# clk $end
       $var wire 20 ;$ d [19:0] $end
       $var wire 20 _" q [19:0] $end
       $var wire 20 _" regout [19:0] $end
       $var wire  1 )# reset $end
       $var wire  1 -% w $end
      $upscope $end
      $scope module b_sel $end
       $var wire 20 w" in0 [19:0] $end
       $var wire 20 q# in1 [19:0] $end
       $var wire 20 ;$ out [19:0] $end
       $var wire 32 C$ p_nbits [31:0] $end
       $var wire  1 3 sel $end
      $upscope $end
      $scope module carry_sel $end
       $var wire 33 ?" in0 [32:0] $end
       $var wire 33 %! in1 [32:0] $end
       $var wire 33 S out [32:0] $end
       $var wire 32 %% p_nbits [31:0] $end
       $var wire  1 # sel $end
      $upscope $end
     $upscope $end
    $upscope $end
   $upscope $end
  $upscope $end
 $upscope $end
$enddefinitions $end


#50
0#
0+
13
0;
b000000000000000000000000000000000 C
b000000000000000000000000000000000 S
b0000000000000000000000000000000000000000 c
b0000000000000000000000000000000000000000 s
b000000000000000000000000000000000 %!
b000000000000000000000000000000000 5!
0E!
b000000000000000000000000000000000 M!
b000000000000000000000000000000000 ]!
b00 m!
b00000 u!
b000000000000000000000000000000000 }!
b000000000000000000000000000000000 /"
b000000000000000000000000000000000 ?"
b000000000000000000000000000000000 O"
b00000000000000000000 _"
b000000000000000000000000000000000 g"
b00000000000000000000 w"
0!#
1)#
b0000000000000000000000000000000000000000 1#
1A#
0I#
b00000000000000000000 Q#
0Y#
0a#
b00000000000000000000 i#
b00000000000000000000 q#
b00 y#
b000000000000000000000000000000000 #$
13$
b00000000000000000000 ;$
b00000000000000000000000000010100 C$
b00000000000000000000000000001101 K$
b00000000000000000000000000000001 S$
b00 [$
b01 c$
b10 k$
b000000000000000000000000000000000 s$
b00000000000000000000000000100001 %%
1-%
#100
1!#
#150
0!#
#200
1!#
#250
0!#
#300
1!#
#350
0!#
0)#
#400
1!#
#450
0!#
#500
1!#
#550
0!#
#600
1!#
#650
0!#
#700
1!#
#750
0!#
#800
1!#
#850
0!#
#900
1!#
#950
b000000000000001011011100111001100 M!
b000000000000001011011100111001100 ]!
0!#
b0101101110011100110011100011101000111110 1#
1I#
1Y#
b01011011100111001100 i#
b11100011101000111110 q#
b01 y#
b000000000000011100011101000111110 #$
b11100011101000111110 ;$
#1000
1+
03
b000000000000001011011100111001100 S
b0000000000000000000001011011100111001100 c
b1101001000110001101000000000000000000000 s
b000110001101000000000000000000000 %!
b000000000000001011011100111001100 5!
b000000000000010110111001110011000 M!
b01 m!
b000000000000001011011100111001100 /"
b000000000000001011011100111001100 ?"
b000000000000011100011101000111110 O"
b11100011101000111110 _"
b000000000000010110111001110011000 g"
b01110001110100011111 w"
1!#
0A#
b000000000000001110001110100011111 #$
03$
b01110001110100011111 ;$
#1050
0!#
0I#
#1100
b000000000000010110111001110011000 C
b000000000000010110111001110011000 S
b000000000000010110111001110011000 5!
1E!
b000000000000101101110011100110000 M!
b00001 u!
b000000000000010110111001110011000 ?"
b000000000000001110001110100011111 O"
b01110001110100011111 _"
b000000000000101101110011100110000 g"
b00111000111010001111 w"
1!#
b000000000000000111000111010001111 #$
b00111000111010001111 ;$
#1150
0!#
#1200
b000000000001000100101101011001000 C
b000000000000101101110011100110000 S
b000000000001000100101101011001000 5!
b000000000001011011100111001100000 M!
b00010 u!
b000000000000010110111001110011000 }!
b000000000000101101110011100110000 ?"
b000000000000000111000111010001111 O"
b00111000111010001111 _"
b000000000001011011100111001100000 g"
b00011100011101000111 w"
1!#
b00000000000001011011 Q#
b000000000000000011100011101000111 #$
b00011100011101000111 ;$
#1250
0!#
#1300
b000000000010100000010100100101000 C
b000000000001011011100111001100000 S
b000000000010100000010100100101000 5!
b000000000010110111001110011000000 M!
b00011 u!
b000000000001000100101101011001000 }!
b000000000001011011100111001100000 ?"
b000000000000000011100011101000111 O"
b00011100011101000111 _"
b000000000010110111001110011000000 g"
b00001110001110100011 w"
1!#
b00000000000100010010 Q#
b000000000000000001110001110100011 #$
b00001110001110100011 ;$
#1350
0!#
#1400
b000000000101010111100010111101000 C
b000000000010110111001110011000000 S
b000000000101010111100010111101000 5!
b000000000101101110011100110000000 M!
b00100 u!
b000000000010100000010100100101000 }!
b000000000010110111001110011000000 ?"
b000000000000000001110001110100011 O"
b00001110001110100011 _"
b000000000101101110011100110000000 g"
b00000111000111010001 w"
1!#
b00000000001010000001 Q#
b000000000000000000111000111010001 #$
b00000111000111010001 ;$
#1450
0!#
#1500
b000000001011000101111111101101000 C
b000000000101101110011100110000000 S
b000000001011000101111111101101000 5!
b000000001011011100111001100000000 M!
b00101 u!
b000000000101010111100010111101000 }!
b000000000101101110011100110000000 ?"
b000000000000000000111000111010001 O"
b00000111000111010001 _"
b000000001011011100111001100000000 g"
b00000011100011101000 w"
1!#
b00000000010101011110 Q#
b000000000000000000011100011101000 #$
b00000011100011101000 ;$
#1550
0!#
#1600
b000000001011011100111001100000000 S
b000000010110100010111001001101000 5!
0E!
b000000010110111001110011000000000 M!
b00110 u!
b000000001011000101111111101101000 }!
b000000001011011100111001100000000 ?"
b000000000000000000011100011101000 O"
b00000011100011101000 _"
b000000010110111001110011000000000 g"
b00000001110001110100 w"
1!#
b00000000101100010111 Q#
b000000000000000000001110001110100 #$
b00000001110001110100 ;$
#1650
0!#
#1700
b000000010110111001110011000000000 S
b000000100001111111110010101101000 5!
b000000101101110011100110000000000 M!
b00111 u!
b000000010110111001110011000000000 ?"
b000000000000000000001110001110100 O"
b00000001110001110100 _"
b000000101101110011100110000000000 g"
b00000000111000111010 w"
1!#
b000000000000000000000111000111010 #$
b00000000111000111010 ;$
#1750
0!#
#1800
b000000101101110011100110000000000 S
b000000111000111001100101101101000 5!
b000001011011100111001100000000000 M!
b01000 u!
b000000101101110011100110000000000 ?"
b000000000000000000000111000111010 O"
b00000000111000111010 _"
b000001011011100111001100000000000 g"
b00000000011100011101 w"
1!#
b000000000000000000000011100011101 #$
b00000000011100011101 ;$
#1850
0!#
#1900
b000001100110101101001011101101000 C
b000001011011100111001100000000000 S
b000001100110101101001011101101000 5!
1E!
b000010110111001110011000000000000 M!
b01001 u!
b000001011011100111001100000000000 ?"
b000000000000000000000011100011101 O"
b00000000011100011101 _"
b000010110111001110011000000000000 g"
b00000000001110001110 w"
1!#
b000000000000000000000001110001110 #$
b00000000001110001110 ;$
#1950
0!#
#2000
b000010110111001110011000000000000 S
b000100011101111011100011101101000 5!
0E!
b000101101110011100110000000000000 M!
b01010 u!
b000001100110101101001011101101000 }!
b000010110111001110011000000000000 ?"
b000000000000000000000001110001110 O"
b00000000001110001110 _"
b000101101110011100110000000000000 g"
b00000000000111000111 w"
1!#
b00000110011010110100 Q#
b000000000000000000000000111000111 #$
b00000000000111000111 ;$
#2050
0!#
#2100
b000111010101001001111011101101000 C
b000101101110011100110000000000000 S
b000111010101001001111011101101000 5!
1E!
b001011011100111001100000000000000 M!
b01011 u!
b000101101110011100110000000000000 ?"
b000000000000000000000000111000111 O"
b00000000000111000111 _"
b001011011100111001100000000000000 g"
b00000000000011100011 w"
1!#
b000000000000000000000000011100011 #$
b00000000000011100011 ;$
#2150
0!#
#2200
b010010110010000011011011101101000 C
b001011011100111001100000000000000 S
b010010110010000011011011101101000 5!
b010110111001110011000000000000000 M!
b01100 u!
b000111010101001001111011101101000 }!
b001011011100111001100000000000000 ?"
b000000000000000000000000011100011 O"
b00000000000011100011 _"
b010110111001110011000000000000000 g"
b00000000000001110001 w"
1!#
b00011101010100100111 Q#
b000000000000000000000000001110001 #$
b00000000000001110001 ;$
#2250
0!#
#2300
b101001101011110110011011101101000 C
b010110111001110011000000000000000 S
b101001101011110110011011101101000 5!
b101101110011100110000000000000000 M!
b01101 u!
b010010110010000011011011101101000 }!
b010110111001110011000000000000000 ?"
b000000000000000000000000001110001 O"
b00000000000001110001 _"
b101101110011100110000000000000000 g"
b00000000000000111000 w"
1!#
b01001011001000001101 Q#
b000000000000000000000000000111000 #$
b00000000000000111000 ;$
#2350
0!#
#2400
b101101110011100110000000000000000 S
b010111011111011100011011101101000 5!
0E!
b011011100111001100000000000000000 M!
b01110 u!
b101001101011110110011011101101000 }!
b101101110011100110000000000000000 ?"
b000000000000000000000000000111000 O"
b00000000000000111000 _"
b011011100111001100000000000000000 g"
b00000000000000011100 w"
1!#
b10100110101111011001 Q#
b000000000000000000000000000011100 #$
b00000000000000011100 ;$
#2450
0!#
#2500
b011011100111001100000000000000000 S
b000101010011000010011011101101000 5!
b110111001110011000000000000000000 M!
b01111 u!
b011011100111001100000000000000000 ?"
b000000000000000000000000000011100 O"
b00000000000000011100 _"
b110111001110011000000000000000000 g"
b00000000000000001110 w"
1!#
b000000000000000000000000000001110 #$
b00000000000000001110 ;$
#2550
0!#
#2600
b110111001110011000000000000000000 S
b100000111010001110011011101101000 5!
b101110011100110000000000000000000 M!
b10000 u!
b110111001110011000000000000000000 ?"
b000000000000000000000000000001110 O"
b00000000000000001110 _"
b101110011100110000000000000000000 g"
b00000000000000000111 w"
1!#
b000000000000000000000000000000111 #$
b00000000000000000111 ;$
#2650
0!#
#2700
b011000001000100110011011101101000 C
b101110011100110000000000000000000 S
b011000001000100110011011101101000 5!
1E!
b011100111001100000000000000000000 M!
b10001 u!
b101110011100110000000000000000000 ?"
b000000000000000000000000000000111 O"
b00000000000000000111 _"
b011100111001100000000000000000000 g"
b00000000000000000011 w"
1!#
b000000000000000000000000000000011 #$
b00000000000000000011 ;$
#2750
0!#
#2800
b110101000010000110011011101101000 C
b011100111001100000000000000000000 S
b110101000010000110011011101101000 5!
b111001110011000000000000000000000 M!
b10010 u!
b011000001000100110011011101101000 }!
b011100111001100000000000000000000 ?"
b000000000000000000000000000000011 O"
b00000000000000000011 _"
b111001110011000000000000000000000 g"
b00000000000000000001 w"
1!#
b01100000100010011001 Q#
b000000000000000000000000000000001 #$
b00000000000000000001 ;$
#2850
0!#
#2900
1#
b111011001111000110011011101101000 C
b000110001101000000000000000000000 S
b111011001111000110011011101101000 5!
b110011100110000000000000000000000 M!
b10011 u!
b110101000010000110011011101101000 }!
b111001110011000000000000000000000 ?"
b000000000000000000000000000000001 O"
b00000000000000000001 _"
b110011100110000000000000000000000 g"
b00000000000000000000 w"
1!#
b11010100001000011001 Q#
b10 y#
b000000000000000000000000000000000 #$
b00000000000000000000 ;$
#2950
0!#
#3000
0#
0+
1;
b110011100110000000000000000000000 S
b101110110101000110011011101101000 5!
0E!
b100111001100000000000000000000000 M!
b10 m!
b10100 u!
b111011001111000110011011101101000 }!
b110011100110000000000000000000000 ?"
b000000000000000000000000000000000 O"
b00000000000000000000 _"
b100111001100000000000000000000000 g"
1!#
b11101100111100011001 Q#
1a#
b00 y#
#3050
0!#
#3100
13
0;
b100111001100000000000000000000000 S
b100010011011000110011011101101000 5!
b000000000000001011011100111001100 M!
b00 m!
b00000 u!
b100111001100000000000000000000000 ?"
b001110011000000000000000000000000 g"
1!#
1A#
0a#
b000000000000011100011101000111110 #$
13$
b11100011101000111110 ;$
#3150
0!#
0Y#
#3200
b000000000000000000000000000000000 C
b000000000000001011011100111001100 S
b000000000000001011011100111001100 5!
b000000000000000000000000000000000 }!
b000000000000001011011100111001100 ?"
b000000000000011100011101000111110 O"
b11100011101000111110 _"
b000000000000010110111001110011000 g"
b01110001110100011111 w"
1!#
b00000000000000000000 Q#
