rand_1_1_23_19_top_mult.verilator1.vcd
$version Generated by VerilatedVcd $end
$date Sat Feb 11 00:25:13 2023
 $end
$timescale  10ps $end

 $scope module TOP $end
  $var wire  1 !# clk [0:0] $end
  $var wire 46 1# recv_msg [45:0] $end
  $var wire  1 A# recv_rdy [0:0] $end
  $var wire  1 I# recv_val [0:0] $end
  $var wire  1 )# reset [0:0] $end
  $var wire 23 Q# send_msg [22:0] $end
  $var wire  1 Y# send_rdy [0:0] $end
  $var wire  1 a# send_val [0:0] $end
  $scope module HarnessVRTL__n_23__d_19 $end
   $var wire  1 !# clk [0:0] $end
   $var wire 46 1# recv_msg [45:0] $end
   $var wire  1 A# recv_rdy [0:0] $end
   $var wire  1 I# recv_val [0:0] $end
   $var wire  1 )# reset [0:0] $end
   $var wire 23 Q# send_msg [22:0] $end
   $var wire  1 Y# send_rdy [0:0] $end
   $var wire  1 a# send_val [0:0] $end
   $scope module v $end
    $var wire  1 !# clk $end
    $var wire 32 K$ d [31:0] $end
    $var wire 32 C$ n [31:0] $end
    $var wire 46 1# recv_msg [45:0] $end
    $var wire  1 A# recv_rdy $end
    $var wire  1 I# recv_val $end
    $var wire  1 )# reset $end
    $var wire 23 Q# send_msg [22:0] $end
    $var wire  1 Y# send_rdy $end
    $var wire  1 a# send_val $end
    $scope module mult $end
     $var wire 23 i# a [22:0] $end
     $var wire 23 q# b [22:0] $end
     $var wire 23 Q# c [22:0] $end
     $var wire  1 !# clk $end
     $var wire 32 K$ d [31:0] $end
     $var wire  1 + do_add $end
     $var wire  1 # do_carry $end
     $var wire  1 3 in_wait $end
     $var wire 32 C$ n [31:0] $end
     $var wire  1 A# recv_rdy $end
     $var wire  1 I# recv_val $end
     $var wire  1 )# reset $end
     $var wire  1 Y# send_rdy $end
     $var wire  1 a# send_val $end
     $var wire 32 S$ sign [31:0] $end
     $scope module control $end
      $var wire  2 c$ CALC [1:0] $end
      $var wire  2 k$ DONE [1:0] $end
      $var wire  2 [$ IDLE [1:0] $end
      $var wire  1 !# clk $end
      $var wire  5 u! counter [4:0] $end
      $var wire  1 ; counter_reset $end
      $var wire 32 K$ d [31:0] $end
      $var wire  1 + do_add $end
      $var wire  1 # do_carry $end
      $var wire  1 3 in_wait $end
      $var wire 32 C$ n [31:0] $end
      $var wire  2 y# next_state [1:0] $end
      $var wire  1 A# recv_rdy $end
      $var wire  1 I# recv_val $end
      $var wire  1 )# reset $end
      $var wire  1 Y# send_rdy $end
      $var wire  1 a# send_val $end
      $var wire  2 m! state [1:0] $end
     $upscope $end
     $scope module datapath $end
      $var wire 42 ]! a [41:0] $end
      $var wire 42 /" a_const_out [41:0] $end
      $var wire 42 M! a_in [41:0] $end
      $var wire 42 ?" a_out [41:0] $end
      $var wire 42 C acc_in [41:0] $end
      $var wire 42 }! acc_out [41:0] $end
      $var wire 42 S add_tmp [41:0] $end
      $var wire 23 q# b [22:0] $end
      $var wire 42 #$ b_in [41:0] $end
      $var wire 42 O" b_out [41:0] $end
      $var wire 23 Q# c [22:0] $end
      $var wire 42 s$ carry [41:0] $end
      $var wire 46 c carry_tmp [45:0] $end
      $var wire 46 s carry_tmp2 [45:0] $end
      $var wire  1 !# clk $end
      $var wire 32 K$ d [31:0] $end
      $var wire  1 + do_add $end
      $var wire  1 # do_carry $end
      $var wire  1 3 in_wait $end
      $var wire 32 C$ n [31:0] $end
      $var wire  1 )# reset $end
      $scope module a_const_reg $end
       $var wire 32 %% N [31:0] $end
       $var wire  1 !# clk $end
       $var wire 42 ]! d [41:0] $end
       $var wire 42 /" q [41:0] $end
       $var wire 42 /" regout [41:0] $end
       $var wire  1 )# reset $end
       $var wire  1 3 w $end
      $upscope $end
      $scope module a_reg $end
       $var wire 32 %% N [31:0] $end
       $var wire  1 !# clk $end
       $var wire 42 M! d [41:0] $end
       $var wire 42 ?" q [41:0] $end
       $var wire 42 ?" regout [41:0] $end
       $var wire  1 )# reset $end
       $var wire  1 -% w $end
      $upscope $end
      $scope module a_sel $end
       $var wire 42 g" in0 [41:0] $end
       $var wire 42 ]! in1 [41:0] $end
       $var wire 42 M! out [41:0] $end
       $var wire 32 %% p_nbits [31:0] $end
       $var wire  1 3 sel $end
      $upscope $end
      $scope module acc_reg $end
       $var wire 32 %% N [31:0] $end
       $var wire  1 !# clk $end
       $var wire 42 C d [41:0] $end
       $var wire 42 }! q [41:0] $end
       $var wire 42 }! regout [41:0] $end
       $var wire  1 3$ reset $end
       $var wire  1 -% w $end
      $upscope $end
      $scope module add_sel $end
       $var wire 42 }! in0 [41:0] $end
       $var wire 42 5! in1 [41:0] $end
       $var wire 42 C out [41:0] $end
       $var wire 32 %% p_nbits [31:0] $end
       $var wire  1 E! sel $end
      $upscope $end
      $scope module b_reg $end
       $var wire 32 C$ N [31:0] $end
       $var wire  1 !# clk $end
       $var wire 23 ;$ d [22:0] $end
       $var wire 23 _" q [22:0] $end
       $var wire 23 _" regout [22:0] $end
       $var wire  1 )# reset $end
       $var wire  1 -% w $end
      $upscope $end
      $scope module b_sel $end
       $var wire 23 w" in0 [22:0] $end
       $var wire 23 q# in1 [22:0] $end
       $var wire 23 ;$ out [22:0] $end
       $var wire 32 C$ p_nbits [31:0] $end
       $var wire  1 3 sel $end
      $upscope $end
      $scope module carry_sel $end
       $var wire 42 ?" in0 [41:0] $end
       $var wire 42 %! in1 [41:0] $end
       $var wire 42 S out [41:0] $end
       $var wire 32 %% p_nbits [31:0] $end
       $var wire  1 # sel $end
      $upscope $end
     $upscope $end
    $upscope $end
   $upscope $end
  $upscope $end
 $upscope $end
$enddefinitions $end


#50
0#
0+
13
0;
b000000000000000000000000000000000000000000 C
b000000000000000000000000000000000000000000 S
b0000000000000000000000000000000000000000000000 c
b0000000000000000000000000000000000000000000000 s
b000000000000000000000000000000000000000000 %!
b000000000000000000000000000000000000000000 5!
0E!
b000000000000000000000000000000000000000000 M!
b000000000000000000000000000000000000000000 ]!
b00 m!
b00000 u!
b000000000000000000000000000000000000000000 }!
b000000000000000000000000000000000000000000 /"
b000000000000000000000000000000000000000000 ?"
b000000000000000000000000000000000000000000 O"
b00000000000000000000000 _"
b000000000000000000000000000000000000000000 g"
b00000000000000000000000 w"
0!#
1)#
b0000000000000000000000000000000000000000000000 1#
1A#
0I#
b00000000000000000000000 Q#
0Y#
0a#
b00000000000000000000000 i#
b00000000000000000000000 q#
b00 y#
b000000000000000000000000000000000000000000 #$
13$
b00000000000000000000000 ;$
b00000000000000000000000000010111 C$
b00000000000000000000000000010011 K$
b00000000000000000000000000000001 S$
b00 [$
b01 c$
b10 k$
b000000000000000000000000000000000000000000 s$
b00000000000000000000000000101010 %%
1-%
#100
1!#
#150
0!#
#200
1!#
#250
0!#
#300
1!#
#350
0!#
0)#
#400
1!#
#450
0!#
#500
1!#
#550
0!#
#600
1!#
#650
0!#
#700
1!#
#750
0!#
#800
1!#
#850
0!#
#900
1!#
#950
b000000000000000000000001111111111101001110 M!
b000000000000000000000001111111111101001110 ]!
0!#
b0000111111111110100111010011110100111111010011 1#
1I#
1Y#
b00001111111111101001110 i#
b10011110100111111010011 q#
b01 y#
b000000000000000000010011110100111111010011 #$
b10011110100111111010011 ;$
#1000
1+
03
b000000000000000000000001111111111101001110 C
b000000000000000000000001111111111101001110 S
b0000000000000000000000000001111111111101001110 c
b1111100000000000101100100000000000000000000000 s
b100000000000101100100000000000000000000000 %!
b000000000000000000000001111111111101001110 5!
1E!
b000000000000000000000011111111111010011100 M!
b01 m!
b000000000000000000000001111111111101001110 /"
b000000000000000000000001111111111101001110 ?"
b000000000000000000010011110100111111010011 O"
b10011110100111111010011 _"
b000000000000000000000011111111111010011100 g"
b01001111010011111101001 w"
1!#
0A#
b000000000000000000001001111010011111101001 #$
03$
b01001111010011111101001 ;$
#1050
0!#
0I#
#1100
b000000000000000000000101111111110111101010 C
b000000000000000000000011111111111010011100 S
b000000000000000000000101111111110111101010 5!
b000000000000000000000111111111110100111000 M!
b00001 u!
b000000000000000000000001111111111101001110 }!
b000000000000000000000011111111111010011100 ?"
b000000000000000000001001111010011111101001 O"
b01001111010011111101001 _"
b000000000000000000000111111111110100111000 g"
b00100111101001111110100 w"
1!#
b000000000000000000000100111101001111110100 #$
b00100111101001111110100 ;$
#1150
0!#
#1200
b000000000000000000000111111111110100111000 S
b000000000000000000001101111111101100100010 5!
0E!
b000000000000000000001111111111101001110000 M!
b00010 u!
b000000000000000000000101111111110111101010 }!
b000000000000000000000111111111110100111000 ?"
b000000000000000000000100111101001111110100 O"
b00100111101001111110100 _"
b000000000000000000001111111111101001110000 g"
b00010011110100111111010 w"
1!#
b00000000000000000000010 Q#
b000000000000000000000010011110100111111010 #$
b00010011110100111111010 ;$
#1250
0!#
#1300
b000000000000000000001111111111101001110000 S
b000000000000000000010101111111100001011010 5!
b000000000000000000011111111111010011100000 M!
b00011 u!
b000000000000000000001111111111101001110000 ?"
b000000000000000000000010011110100111111010 O"
b00010011110100111111010 _"
b000000000000000000011111111111010011100000 g"
b00001001111010011111101 w"
1!#
b000000000000000000000001001111010011111101 #$
b00001001111010011111101 ;$
#1350
0!#
#1400
b000000000000000000100101111111001011001010 C
b000000000000000000011111111111010011100000 S
b000000000000000000100101111111001011001010 5!
1E!
b000000000000000000111111111110100111000000 M!
b00100 u!
b000000000000000000011111111111010011100000 ?"
b000000000000000000000001001111010011111101 O"
b00001001111010011111101 _"
b000000000000000000111111111110100111000000 g"
b00000100111101001111110 w"
1!#
b000000000000000000000000100111101001111110 #$
b00000100111101001111110 ;$
#1450
0!#
#1500
b000000000000000000111111111110100111000000 S
b000000000000000001100101111101110010001010 5!
0E!
b000000000000000001111111111101001110000000 M!
b00101 u!
b000000000000000000100101111111001011001010 }!
b000000000000000000111111111110100111000000 ?"
b000000000000000000000000100111101001111110 O"
b00000100111101001111110 _"
b000000000000000001111111111101001110000000 g"
b00000010011110100111111 w"
1!#
b00000000000000000010010 Q#
b000000000000000000000000010011110100111111 #$
b00000010011110100111111 ;$
#1550
0!#
#1600
b000000000000000010100101111100011001001010 C
b000000000000000001111111111101001110000000 S
b000000000000000010100101111100011001001010 5!
1E!
b000000000000000011111111111010011100000000 M!
b00110 u!
b000000000000000001111111111101001110000000 ?"
b000000000000000000000000010011110100111111 O"
b00000010011110100111111 _"
b000000000000000011111111111010011100000000 g"
b00000001001111010011111 w"
1!#
b000000000000000000000000001001111010011111 #$
b00000001001111010011111 ;$
#1650
0!#
#1700
b000000000000000110100101110110110101001010 C
b000000000000000011111111111010011100000000 S
b000000000000000110100101110110110101001010 5!
b000000000000000111111111110100111000000000 M!
b00111 u!
b000000000000000010100101111100011001001010 }!
b000000000000000011111111111010011100000000 ?"
b000000000000000000000000001001111010011111 O"
b00000001001111010011111 _"
b000000000000000111111111110100111000000000 g"
b00000000100111101001111 w"
1!#
b00000000000000001010010 Q#
b000000000000000000000000000100111101001111 #$
b00000000100111101001111 ;$
#1750
0!#
#1800
b000000000000001110100101101011101101001010 C
b000000000000000111111111110100111000000000 S
b000000000000001110100101101011101101001010 5!
b000000000000001111111111101001110000000000 M!
b01000 u!
b000000000000000110100101110110110101001010 }!
b000000000000000111111111110100111000000000 ?"
b000000000000000000000000000100111101001111 O"
b00000000100111101001111 _"
b000000000000001111111111101001110000000000 g"
b00000000010011110100111 w"
1!#
b00000000000000011010010 Q#
b000000000000000000000000000010011110100111 #$
b00000000010011110100111 ;$
#1850
0!#
#1900
b000000000000011110100101010101011101001010 C
b000000000000001111111111101001110000000000 S
b000000000000011110100101010101011101001010 5!
b000000000000011111111111010011100000000000 M!
b01001 u!
b000000000000001110100101101011101101001010 }!
b000000000000001111111111101001110000000000 ?"
b000000000000000000000000000010011110100111 O"
b00000000010011110100111 _"
b000000000000011111111111010011100000000000 g"
b00000000001001111010011 w"
1!#
b00000000000000111010010 Q#
b000000000000000000000000000001001111010011 #$
b00000000001001111010011 ;$
#1950
0!#
#2000
b000000000000111110100100101000111101001010 C
b000000000000011111111111010011100000000000 S
b000000000000111110100100101000111101001010 5!
b000000000000111111111110100111000000000000 M!
b01010 u!
b000000000000011110100101010101011101001010 }!
b000000000000011111111111010011100000000000 ?"
b000000000000000000000000000001001111010011 O"
b00000000001001111010011 _"
b000000000000111111111110100111000000000000 g"
b00000000000100111101001 w"
1!#
b00000000000001111010010 Q#
b000000000000000000000000000000100111101001 #$
b00000000000100111101001 ;$
#2050
0!#
#2100
b000000000001111110100011001111111101001010 C
b000000000000111111111110100111000000000000 S
b000000000001111110100011001111111101001010 5!
b000000000001111111111101001110000000000000 M!
b01011 u!
b000000000000111110100100101000111101001010 }!
b000000000000111111111110100111000000000000 ?"
b000000000000000000000000000000100111101001 O"
b00000000000100111101001 _"
b000000000001111111111101001110000000000000 g"
b00000000000010011110100 w"
1!#
b00000000000011111010010 Q#
b000000000000000000000000000000010011110100 #$
b00000000000010011110100 ;$
#2150
0!#
#2200
b000000000001111111111101001110000000000000 S
b000000000011111110100000011101111101001010 5!
0E!
b000000000011111111111010011100000000000000 M!
b01100 u!
b000000000001111110100011001111111101001010 }!
b000000000001111111111101001110000000000000 ?"
b000000000000000000000000000000010011110100 O"
b00000000000010011110100 _"
b000000000011111111111010011100000000000000 g"
b00000000000001001111010 w"
1!#
b00000000000111111010001 Q#
b000000000000000000000000000000001001111010 #$
b00000000000001001111010 ;$
#2250
0!#
#2300
b000000000011111111111010011100000000000000 S
b000000000101111110011101101011111101001010 5!
b000000000111111111110100111000000000000000 M!
b01101 u!
b000000000011111111111010011100000000000000 ?"
b000000000000000000000000000000001001111010 O"
b00000000000001001111010 _"
b000000000111111111110100111000000000000000 g"
b00000000000000100111101 w"
1!#
b000000000000000000000000000000000100111101 #$
b00000000000000100111101 ;$
#2350
0!#
#2400
b000000001001111110011000000111111101001010 C
b000000000111111111110100111000000000000000 S
b000000001001111110011000000111111101001010 5!
1E!
b000000001111111111101001110000000000000000 M!
b01110 u!
b000000000111111111110100111000000000000000 ?"
b000000000000000000000000000000000100111101 O"
b00000000000000100111101 _"
b000000001111111111101001110000000000000000 g"
b00000000000000010011110 w"
1!#
b000000000000000000000000000000000010011110 #$
b00000000000000010011110 ;$
#2450
0!#
#2500
b000000001111111111101001110000000000000000 S
b000000011001111110000001110111111101001010 5!
0E!
b000000011111111111010011100000000000000000 M!
b01111 u!
b000000001001111110011000000111111101001010 }!
b000000001111111111101001110000000000000000 ?"
b000000000000000000000000000000000010011110 O"
b00000000000000010011110 _"
b000000011111111111010011100000000000000000 g"
b00000000000000001001111 w"
1!#
b00000000100111111001100 Q#
b000000000000000000000000000000000001001111 #$
b00000000000000001001111 ;$
#2550
0!#
#2600
b000000101001111101101011100111111101001010 C
b000000011111111111010011100000000000000000 S
b000000101001111101101011100111111101001010 5!
1E!
b000000111111111110100111000000000000000000 M!
b10000 u!
b000000011111111111010011100000000000000000 ?"
b000000000000000000000000000000000001001111 O"
b00000000000000001001111 _"
b000000111111111110100111000000000000000000 g"
b00000000000000000100111 w"
1!#
b000000000000000000000000000000000000100111 #$
b00000000000000000100111 ;$
#2650
0!#
#2700
b000001101001111100010010100111111101001010 C
b000000111111111110100111000000000000000000 S
b000001101001111100010010100111111101001010 5!
b000001111111111101001110000000000000000000 M!
b10001 u!
b000000101001111101101011100111111101001010 }!
b000000111111111110100111000000000000000000 ?"
b000000000000000000000000000000000000100111 O"
b00000000000000000100111 _"
b000001111111111101001110000000000000000000 g"
b00000000000000000010011 w"
1!#
b00000010100111110110101 Q#
b000000000000000000000000000000000000010011 #$
b00000000000000000010011 ;$
#2750
0!#
#2800
b000011101001111001100000100111111101001010 C
b000001111111111101001110000000000000000000 S
b000011101001111001100000100111111101001010 5!
b000011111111111010011100000000000000000000 M!
b10010 u!
b000001101001111100010010100111111101001010 }!
b000001111111111101001110000000000000000000 ?"
b000000000000000000000000000000000000010011 O"
b00000000000000000010011 _"
b000011111111111010011100000000000000000000 g"
b00000000000000000001001 w"
1!#
b00000110100111110001001 Q#
b000000000000000000000000000000000000001001 #$
b00000000000000000001001 ;$
#2850
0!#
#2900
b000111101001110011111100100111111101001010 C
b000011111111111010011100000000000000000000 S
b000111101001110011111100100111111101001010 5!
b000111111111110100111000000000000000000000 M!
b10011 u!
b000011101001111001100000100111111101001010 }!
b000011111111111010011100000000000000000000 ?"
b000000000000000000000000000000000000001001 O"
b00000000000000000001001 _"
b000111111111110100111000000000000000000000 g"
b00000000000000000000100 w"
1!#
b00001110100111100110000 Q#
b000000000000000000000000000000000000000100 #$
b00000000000000000000100 ;$
#2950
0!#
#3000
b000111111111110100111000000000000000000000 S
b001111101001101000110100100111111101001010 5!
0E!
b001111111111101001110000000000000000000000 M!
b10100 u!
b000111101001110011111100100111111101001010 }!
b000111111111110100111000000000000000000000 ?"
b000000000000000000000000000000000000000100 O"
b00000000000000000000100 _"
b001111111111101001110000000000000000000000 g"
b00000000000000000000010 w"
1!#
b00011110100111001111110 Q#
b000000000000000000000000000000000000000010 #$
b00000000000000000000010 ;$
#3050
0!#
#3100
b001111111111101001110000000000000000000000 S
b010111101001011101101100100111111101001010 5!
b011111111111010011100000000000000000000000 M!
b10101 u!
b001111111111101001110000000000000000000000 ?"
b000000000000000000000000000000000000000010 O"
b00000000000000000000010 _"
b011111111111010011100000000000000000000000 g"
b00000000000000000000001 w"
1!#
b000000000000000000000000000000000000000001 #$
b00000000000000000000001 ;$
#3150
0!#
#3200
1#
b100111101010100000011100100111111101001010 C
b100000000000101100100000000000000000000000 S
b100111101010100000011100100111111101001010 5!
1E!
b111111111110100111000000000000000000000000 M!
b10110 u!
b011111111111010011100000000000000000000000 ?"
b000000000000000000000000000000000000000001 O"
b00000000000000000000001 _"
b111111111110100111000000000000000000000000 g"
b00000000000000000000000 w"
1!#
b10 y#
b000000000000000000000000000000000000000000 #$
b00000000000000000000000 ;$
#3250
0!#
#3300
0#
0+
1;
b111111111110100111000000000000000000000000 S
b100111101001000111011100100111111101001010 5!
0E!
b111111111101001110000000000000000000000000 M!
b10 m!
b10111 u!
b100111101010100000011100100111111101001010 }!
b111111111110100111000000000000000000000000 ?"
b000000000000000000000000000000000000000000 O"
b00000000000000000000000 _"
b111111111101001110000000000000000000000000 g"
1!#
b10011110101010000001110 Q#
1a#
b00 y#
#3350
0!#
#3400
13
0;
b111111111101001110000000000000000000000000 S
b100111100111101110011100100111111101001010 5!
b000000000000000000000001111111111101001110 M!
b00 m!
b00000 u!
b111111111101001110000000000000000000000000 ?"
b111111111010011100000000000000000000000000 g"
1!#
1A#
0a#
b000000000000000000010011110100111111010011 #$
13$
b10011110100111111010011 ;$
#3450
0!#
0Y#
#3500
b000000000000000000000000000000000000000000 C
b000000000000000000000001111111111101001110 S
b000000000000000000000001111111111101001110 5!
b000000000000000000000000000000000000000000 }!
b000000000000000000000001111111111101001110 ?"
b000000000000000000010011110100111111010011 O"
b10011110100111111010011 _"
b000000000000000000000011111111111010011100 g"
b01001111010011111101001 w"
1!#
b00000000000000000000000 Q#
